Scratch work lol · Gov 1347 - 2022 Midterm Elections Blog
…
## # A tibble: 85 × 3
##    state_name cd_fips  pred
##    <chr>      <chr>   <dbl>
##  1 Arizona    01       47.6
##  2 Arizona    02       45.4
##  3 Arizona    06       43.2
##  4 California 03       54.3
##  5 California 09       56.0
##  6 California 21       54.3
##  7 California 22       47.3
##  8 California 25       23.4
##  9 California 26       52.1
## 10 California 45       51.2
## # … with 75 more rows
…
